<?xml version="1.0" encoding="utf-8"?>
<!-- Generator: Adobe Illustrator 21.1.0, SVG Export Plug-In . SVG Version: 6.00 Build 0)  -->
<!DOCTYPE svg PUBLIC "-//W3C//DTD SVG 1.1//EN" "http://www.w3.org/Graphics/SVG/1.1/DTD/svg11.dtd">
<svg version="1.1" id="Layer_1" xmlns="http://www.w3.org/2000/svg" xmlns:xlink="http://www.w3.org/1999/xlink" x="0px" y="0px"
	 viewBox="0 0 128.1 58.6" style="enable-background:new 0 0 128.1 58.6;" xml:space="preserve">
<style type="text/css">
	.st0{fill:none;stroke:#989798;stroke-width:0.8037;}
	.st1{fill:#989798;}
</style>
<path class="st0" d="M9.6,19.5h84.7c5.6,0,4,1.5-0.2,1.5H75.8L76,40.5l4.5,4.5"/>
<g>
	<path class="st1" d="M85.3,37c-0.3-0.9-0.6-1.8-0.6-2.8c0-1,0.4-1.9,0.6-2.8h0.4c-0.2,0.9-0.4,1.9-0.4,2.9c0,0.9,0.2,1.9,0.4,2.8
		H85.3z"/>
	<path class="st1" d="M87.1,34.8V35c0,0.6,0.4,0.8,0.8,0.8c0.5,0,0.8-0.2,0.8-0.8c0-1-2.1-0.9-2.1-2.3c0-0.8,0.6-1.3,1.4-1.3
		c0.8,0,1.3,0.4,1.3,1.4h-0.6c0-0.5-0.2-0.8-0.7-0.8c-0.4,0-0.7,0.2-0.7,0.7c0,1,2.1,0.9,2.1,2.3c0,1-0.7,1.3-1.4,1.3
		c-1.4,0-1.4-1-1.4-1.5H87.1z"/>
</g>
<g>
	<path class="st1" d="M92.5,31.6v0.5h-1.2v4.1h-0.6v-4.1h-1.2v-0.5H92.5z"/>
</g>
<g>
	<path class="st1" d="M93.6,31.6h0.8l1.5,4.6h-0.7l-0.3-1.1h-1.8l-0.3,1.1h-0.6L93.6,31.6z M94,32.1L94,32.1l-0.7,2.5h1.5L94,32.1z"
		/>
	<path class="st1" d="M99.7,31.6v4.6h-0.8l-1.8-4h0v4h-0.5v-4.6h0.8l1.8,4h0v-4H99.7z"/>
	<path class="st1" d="M100.8,31.6h1.4c0.6,0,1,0.2,1.2,0.7c0.2,0.4,0.2,1.3,0.2,1.5c0,1-0.1,1.6-0.3,1.9c-0.3,0.4-0.7,0.6-1.5,0.6
		h-1.1V31.6z M101.4,35.7h0.6c0.8,0,1.1-0.3,1.1-1.4v-0.9c0-0.9-0.3-1.3-0.9-1.3h-0.8V35.7z"/>
	<path class="st1" d="M105.8,31.6h0.8l1.5,4.6h-0.7l-0.3-1.1h-1.8l-0.3,1.1h-0.6L105.8,31.6z M106.1,32.1L106.1,32.1l-0.7,2.5h1.5
		L106.1,32.1z"/>
	<path class="st1" d="M109.2,34.1v2.1h-0.6v-4.6h1.6c0.8,0,1.1,0.6,1.1,1.2c0,0.5-0.3,1-0.8,1.1v0c0.5,0.1,0.7,0.3,0.8,1.2
		c0,0.2,0.1,0.9,0.2,1.2h-0.6c-0.2-0.3-0.1-0.9-0.2-1.5c0-0.6-0.5-0.6-0.7-0.6H109.2z M109.2,33.6h0.9c0.4,0,0.6-0.4,0.6-0.8
		c0-0.3-0.2-0.7-0.6-0.7h-0.9V33.6z"/>
	<path class="st1" d="M112.2,31.6h1.4c0.6,0,1,0.2,1.2,0.7c0.2,0.4,0.2,1.3,0.2,1.5c0,1-0.1,1.6-0.3,1.9c-0.3,0.4-0.7,0.6-1.5,0.6
		h-1.1V31.6z M112.8,35.7h0.6c0.8,0,1.1-0.3,1.1-1.4v-0.9c0-0.9-0.3-1.3-0.9-1.3h-0.8V35.7z"/>
	<path class="st1" d="M116.1,37c0.2-0.9,0.4-1.8,0.4-2.8c0-1-0.2-1.9-0.4-2.9h0.4c0.3,0.9,0.6,1.9,0.6,2.8c0,1-0.4,1.9-0.6,2.8
		H116.1z"/>
</g>
</svg>
