<?xml version="1.0" encoding="utf-8"?>
<!-- Generator: Adobe Illustrator 21.1.0, SVG Export Plug-In . SVG Version: 6.00 Build 0)  -->
<svg version="1.1" id="Layer_1" xmlns="http://www.w3.org/2000/svg" xmlns:xlink="http://www.w3.org/1999/xlink" x="0px" y="0px"
	 viewBox="0 0 3158.2 2601.3" style="enable-background:new 0 0 3158.2 2601.3;" xml:space="preserve">
<style type="text/css">
	.st0{fill:#868A74;}
	.st1{fill:#414A59;}
	.st2{fill:#FFFFFF;}
</style>
<circle class="st0" cx="1568" cy="1297.6" r="1252"/>
<polygon class="st1" points="348,1365.6 2588,797.6 2708,1277.6 588,1845.6 "/>
<circle class="st1" cx="1592.5" cy="1289.1" r="819.5"/>
<g>
	<g>
		<polygon class="st2" points="854.4,2055.4 903.4,2104.4 892.6,2036 954.3,2004.6 885.9,1993.7 875,1925.3 843.6,1987 
			775.2,1976.2 824.2,2025.2 792.7,2086.9 		"/>
		<polygon class="st2" points="2303.6,545.8 2254.6,496.8 2265.4,565.2 2203.7,596.6 2272.1,607.5 2283,675.9 2314.4,614.2 
			2382.8,625 2333.8,576 2365.3,514.3 		"/>
		<polygon class="st2" points="1291.2,2374.7 1328.9,2316.6 1395.8,2334.5 1352.2,2280.7 1390,2222.6 1325.3,2247.4 1281.7,2193.6 
			1285.3,2262.8 1220.7,2287.6 1287.6,2305.5 		"/>
		<polygon class="st2" points="1866.8,226.5 1829.1,284.6 1762.2,266.7 1805.8,320.5 1768,378.6 1832.7,353.8 1876.3,407.6 
			1872.7,338.4 1937.3,313.6 1870.4,295.7 		"/>
		<path class="st2" d="M1226.2,1837.6l332.1-89c5.8-1.5,9.2-7.5,7.6-13.2c-1.5-5.8-7.5-9.2-13.2-7.6l-332.1,89
			c-5.8,1.5-9.2,7.5-7.6,13.2C1214.6,1835.7,1220.5,1839.1,1226.2,1837.6z"/>
		<path class="st2" d="M1820.9,1678.2l332.1-89c5.8-1.5,9.2-7.5,7.6-13.2c-1.5-5.8-7.5-9.2-13.2-7.6l-332.1,89
			c-5.8,1.5-9.2,7.5-7.6,13.2C1809.2,1676.4,1815.1,1679.8,1820.9,1678.2z"/>
		
			<ellipse transform="matrix(0.9659 -0.2588 0.2588 0.9659 -383.2783 494.5521)" class="st2" cx="1686.7" cy="1703" rx="19.4" ry="19.4"/>
		
			<ellipse transform="matrix(0.9659 -0.2588 0.2588 0.9659 -390.1089 478.0459)" class="st2" cx="1620.6" cy="1720.7" rx="14.1" ry="14.1"/>
		
			<ellipse transform="matrix(0.9659 -0.2588 0.2588 0.9659 -376.4377 511.0823)" class="st2" cx="1752.9" cy="1685.3" rx="14.1" ry="14.1"/>
		<path class="st2" d="M1337.1,923l-332.1,89c-5.8,1.5-9.2,7.5-7.6,13.2c1.5,5.8,7.5,9.2,13.2,7.6l332.1-89
			c5.8-1.5,9.2-7.5,7.6-13.2C1348.8,924.8,1342.9,921.4,1337.1,923z"/>
		<path class="st2" d="M1931.8,763.6l-332.1,89c-5.8,1.5-9.2,7.5-7.6,13.2c1.5,5.8,7.5,9.2,13.2,7.6l332.1-89
			c5.8-1.5,9.2-7.5,7.6-13.2C1943.4,765.5,1937.5,762.1,1931.8,763.6z"/>
		
			<ellipse transform="matrix(0.9659 -0.2588 0.2588 0.9659 -182.3379 411.3347)" class="st2" cx="1471.1" cy="898.2" rx="19.4" ry="19.4"/>
		
			<ellipse transform="matrix(0.9659 -0.2588 0.2588 0.9659 -189.176 394.8051)" class="st2" cx="1404.9" cy="915.9" rx="14.1" ry="14.1"/>
		
			<ellipse transform="matrix(0.9659 -0.2588 0.2588 0.9659 -175.5081 427.8408)" class="st2" cx="1537.2" cy="880.5" rx="14.1" ry="14.1"/>
		<polygon class="st2" points="1291.2,226.5 1287.6,295.7 1220.7,313.6 1285.3,338.4 1281.7,407.6 1325.3,353.8 1390,378.6 
			1352.2,320.5 1395.8,266.7 1328.9,284.6 		"/>
		<polygon class="st2" points="1829.1,2316.6 1866.8,2374.7 1870.4,2305.5 1937.3,2287.6 1872.7,2262.8 1876.3,2193.6 
			1832.7,2247.4 1768,2222.6 1805.8,2280.7 1762.2,2334.5 		"/>
		<polygon class="st2" points="843.6,614.2 875,675.9 885.9,607.5 954.3,596.6 892.6,565.2 903.4,496.8 854.4,545.8 792.7,514.3 
			824.2,576 775.2,625 		"/>
		<polygon class="st2" points="2254.6,2104.4 2303.6,2055.4 2365.3,2086.9 2333.8,2025.2 2382.8,1976.2 2314.4,1987 2283,1925.3 
			2272.1,1993.7 2203.7,2004.6 2265.4,2036 		"/>
		<polygon class="st2" points="616.8,1006.9 592,942.3 574.1,1009.2 504.9,1012.8 563,1050.5 545.1,1117.4 598.9,1073.8 657,1111.6 
			632.2,1046.9 686,1003.3 		"/>
		<polygon class="st2" points="2541.2,1594.3 2566,1658.9 2583.9,1592 2653.1,1588.4 2595,1550.7 2612.9,1483.8 2559.1,1527.4 
			2501,1489.6 2525.8,1554.3 2472,1597.9 		"/>
		<path class="st2" d="M1219.6,2447.7L1219.6,2447.7c-201-63.3-383.2-178.7-526.6-334.4c-3.5,4.4-11.1,5.3-17.3,3.5
			c85,94,183.8,173.8,294.7,237.9c23,13.3,46.4,25.8,70,37.5c3.7-3.3,8.8-5.2,16.4-4.9c-2.7,3-4.9,6.3-6.6,9.6
			c51.7,25,104.8,46.2,159.2,63.6C1211.5,2456.1,1215.1,2451.9,1219.6,2447.7z"/>
		<path class="st2" d="M1631.6,2508.9c-0.9-2.8-0.6-5.1,0.5-6.9c-135.5,6-268.7-11.2-394.9-48.9c-8.2,2.8-16.3,5.4-23.4,8.7
			c64.3,20.3,130.4,35.2,197.8,44.6c80.4,11.2,161.1,14.3,241.5,9.3C1647,2510.4,1640.5,2506.3,1631.6,2508.9z"/>
		<path class="st2" d="M675.7,2116.8L675.7,2116.8c-0.2-0.3-0.5-0.5-0.7-0.8C675.2,2116.2,675.5,2116.5,675.7,2116.8z"/>
		<path class="st2" d="M1209.9,2460.7c-0.1,0-0.2-0.1-0.3-0.1C1209.7,2460.6,1209.8,2460.6,1209.9,2460.7z"/>
		<path class="st2" d="M675,2116c-3-3.3-5.9-6.6-8.9-9.9C669.1,2109.4,672,2112.7,675,2116z"/>
		<path class="st2" d="M1213.8,2461.9L1213.8,2461.9c-1.3-0.4-2.6-0.8-3.9-1.2C1211.2,2461.1,1212.5,2461.5,1213.8,2461.9z"/>
		<path class="st2" d="M1050.2,2396.9L1050.2,2396.9c-3.3-1.6-6.5-3.2-9.8-4.8C1043.7,2393.7,1047,2395.3,1050.2,2396.9z"/>
		<path class="st2" d="M1209.5,2460.5h0.1H1209.5L1209.5,2460.5z"/>
		<path class="st2" d="M923.1,905.3L923.1,905.3c0.8-1.4,1.6-2.7,2.5-4.1C924.7,902.5,923.9,903.9,923.1,905.3z"/>
		<path class="st2" d="M2007.2,683.8L2007.2,683.8L2007.2,683.8z"/>
		<path class="st2" d="M1674.6,2514.2L1674.6,2514.2c-3.2,0.2-6.4,0.5-9.6,0.7C1668.1,2514.7,1671.4,2514.5,1674.6,2514.2z"/>
		<path class="st2" d="M759.7,375.2L759.7,375.2L759.7,375.2z"/>
		<path class="st2" d="M2635.1,541.6L2635.1,541.6l0.1,0.1C2635.2,541.7,2635.2,541.6,2635.1,541.6z"/>
		<path class="st2" d="M2642.7,552.2c2,2.8,4,5.7,5.9,8.5l0,0C2646.7,557.9,2644.7,555.1,2642.7,552.2z"/>
		<path class="st2" d="M334.3,923.6c-0.1,0.4-0.2,0.7-0.3,1.1C334.1,924.3,334.2,923.9,334.3,923.6L334.3,923.6z"/>
		<path class="st2" d="M413.9,723.3c2.3-4.6,4.6-9.1,6.9-13.7l0,0C418.5,714.2,416.2,718.7,413.9,723.3z"/>
		<path class="st2" d="M282.3,1200.5c0.3-3.7,0.6-7.4,0.9-11C282.8,1193.2,282.5,1196.9,282.3,1200.5z"/>
		<path class="st2" d="M352.2,1149.6L352.2,1149.6L352.2,1149.6z"/>
		<path class="st2" d="M812.4,2350.9c-1.1-0.8-2.2-1.7-3.4-2.5l0,0C810.1,2349.3,811.2,2350.1,812.4,2350.9z"/>
		<path class="st2" d="M674.4,2092.6L674.4,2092.6L674.4,2092.6z"/>
		<path class="st2" d="M1657.5,455.2c4,0.4,8.1,0.8,12.1,1.2C1665.5,456,1661.5,455.6,1657.5,455.2z"/>
		<path class="st2" d="M1655.1,455L1655.1,455c0.8,0.1,1.6,0.2,2.3,0.2C1656.7,455.1,1655.9,455.1,1655.1,455z"/>
		<path class="st2" d="M1617.2,2600.6c-5.1,0.2-10.2,0.3-15.3,0.3l0,0C1606.9,2600.9,1612,2600.8,1617.2,2600.6z"/>
		<path class="st2" d="M950.1,890.4L950.1,890.4L950.1,890.4z"/>
		<path class="st2" d="M1990.3,654.6L1990.3,654.6L1990.3,654.6L1990.3,654.6z"/>
		<path class="st2" d="M941.3,904.3c2.1-3.4,4.3-6.8,6.5-10.2c-0.4-0.8-0.8-1.6-1.2-2.4c1.3-0.8,2.5-1.1,3.6-1.3
			c85.8-131.7,212.8-237,368.5-294.4l0,0c-2.4-13.1,16.2-20,24.5-8.6c13.6-4.5,27.4-8.6,41.4-12.4c202.9-54.4,409-19.9,577,79.5
			c0.3-0.3,0.6-0.7,0.9-1c0.9,1,1.7,1.9,2.3,2.8c6.2,3.7,12.4,7.6,18.5,11.5l0,0c1.9-4.7,4.3-9.2,7.2-13.3
			c-9.3-5.9-18.8-11.7-28.4-17.2c-86.1-49.7-179.5-81.9-277.6-95.5c-101.5-14.1-203.7-7.7-303.5,19
			c-99.9,26.8-191.5,72.3-272.4,135.3c-73.1,56.9-134.5,125.8-182.8,205C932.8,896.5,936.4,902.1,941.3,904.3z"/>
		<path class="st2" d="M800.5,364.7L800.5,364.7L800.5,364.7L800.5,364.7z"/>
		<path class="st2" d="M513.3,712.7c2.5-4.6,5.1-9.2,7.7-13.7C518.4,703.6,515.8,708.1,513.3,712.7z"/>
		<path class="st2" d="M795.6,368.8L795.6,368.8L795.6,368.8z"/>
		<path class="st2" d="M512.1,714.9L512.1,714.9c0.4-0.7,0.8-1.5,1.2-2.2C512.9,713.5,512.5,714.2,512.1,714.9z"/>
		<path class="st2" d="M795.6,368.8c1.6-1.4,3.2-2.7,4.8-4C798.8,366.1,797.2,367.4,795.6,368.8z"/>
		<path class="st2" d="M393.7,1098.5L393.7,1098.5c77.1-448.3,406.6-834.1,874-959.4c1.7-0.4,3.3-0.9,5-1.3
			c1.1-5.5,2.3-10.9,3.9-16.2c-4.2,1.1-8.4,2.2-12.7,3.3c-158.7,42.5-304.3,114.9-432.9,215c-10.4,8.1-20.6,16.3-30.6,24.7
			c-0.6,1.7-0.5,3.7,1,6.2c-2.9,0.3-4.7-0.5-5.9-2.1C687.1,459.8,596.2,568.4,524.9,692c-1.3,2.3-2.6,4.6-3.9,6.9
			c2.1,3.9,4.2,7.9,6.4,11.9c-5.3,3.3-10.4,4.5-15.2,4.1c-66.4,120.9-111.4,250.4-134,385.8C383.4,1099.6,388.7,1098.8,393.7,1098.5
			z"/>
		<path class="st2" d="M1319,111.6c-0.2,5.2-0.6,10.3-1.3,15.3c33.8-7.5,67.7-13.6,101.5-18.1c1.8-5.5,3.4-11.1,9.9-15
			c5.5,6,2.7,9.2,2.9,13.3c143-17.7,284.7-9.1,419.7,22.6l0,0c-1.9-1.4-3.6-2.9-4.8-4.4c5.2-2.9,11.5-5.5,18.6-7.8
			c-39.2-9.5-78.9-17.1-119.1-22.7C1603.6,74.9,1460.1,80.5,1319,111.6z"/>
		<path class="st2" d="M1885.8,122.5c12.7,3.3,25.4,6.8,38,10.6C1911.2,129.4,1898.5,125.8,1885.8,122.5z"/>
	</g>
	<g>
		<path class="st2" d="M1434.3,2071.7c3,0.6,5.9,1.1,8.9,1.6C1440.2,2072.8,1437.3,2072.3,1434.3,2071.7z"/>
		<path class="st2" d="M723.7,1477.9c-7.7-28.6-33.1-51.9-69.4-42.2l-65.7,17.6l30.3,113l65.7-17.6
			C720.9,1539,731.2,1506,723.7,1477.9z"/>
		<path class="st2" d="M1053.4,1464.5l-64.9-95.5l-9.3,115.4L1053.4,1464.5z M1003,1419.4C1002.9,1404.6,1019,1425.3,1003,1419.4
			L1003,1419.4z"/>
		<path class="st2" d="M2985.2,578.2l-278.4,74.6c-18-31.4-37.5-62.1-58.2-92c-8.5,7-17.9,12.4-24.7,13.7
			c-8.5-14.8-0.6-26.2,11.2-32.8c-9.7-13.5-19.6-26.8-29.9-40c-103.3-132.6-229.9-242.7-376.1-327.1
			c-146.2-84.4-304.8-139-471.3-162.2c-172.4-24-345.8-13.1-515.3,32.3C1073,90.1,917.4,167.4,780.1,274.4
			C647.5,377.7,537.4,504.3,453,650.5c-11.3,19.5-21.9,39.2-32.1,59.1c7.7,1.3,15.3-0.4,22.3-8.1c4.3,9,10.8,18.8,8.2,25.4
			c-16,3.9-30.6,7.5-44.2,10.2c-29.1,60.4-53.4,122.7-72.8,186.5c2.3,3.7,2.5,9.7-3,9.9c0.9-3,1.7-5.9,2.6-8.9
			c-19.4,64.2-33.9,130.1-43.2,197.2c-3.1,22.6-5.7,45.1-7.6,67.7c18.2-16.3,33.8-33.9,45.3-53.4c-3.2-12.8-15.9,2.4-18.5-12
			c14.5-4.9,31.4-12.3,48.4-17.9c44.9-279.3,185-535.8,394.3-724.7l0,0c-0.1-3.9,0.7-8.7-1.8-11.2c7.9-4.4,9.1-0.4,8.8,4.9
			c139-123.5,307.9-217.3,499.4-268.6c9.2-2.5,18.4-4.8,27.7-7.1l0,0c6.3-9.3,15.3-17.2,28.8-23.3c1.2,5.4,2.1,10.7,2.7,16l0,0
			c202-43.7,404.4-34.9,592.3,17.8l0,0c12.1,0.2,22.7,2.8,29.2,8.6c290.6,89.2,543.9,284,702.5,551.4l-18.8,5
			c-25.3-42.3-53.3-83.1-83.9-122.4c-96.7-124-215.1-227-352-306c-77.5-44.8-158.8-80.5-243-107.1c-3.8,5.6-13,8.2-24.4,8.5l0,0
			c89.3,26.6,175,63.4,255.5,109.4c-0.3-0.7-0.7-1.3-1-1.9c6-2,10,1.5,12.8,8.7l0,0c170.3,100,316.2,241.5,421.1,415l-361.9,97
			c-67-85.3-148.8-156.1-243.2-210.6c-95.5-55.1-199-90.7-307.7-105.9c-8.7-1.2-17.4-2.3-26.1-3.2c-0.6,2.6-1,5.3-0.7,8.2
			c-7.2,0.1-11.7-4.1-13.7-9.6c-99.1-9-198.4-0.4-295.8,25.7c-110.7,29.7-212.2,80.1-301.9,150C971,698.3,899.2,780.9,844.1,876.3
			c-54.5,94.4-89.9,196.6-105.3,304l-340.2,91.2c0.2,0.5,0.4,0.9,0.7,1.4c-2.3,1.1-4.5,2.2-6.8,3.3c-0.4-0.9-0.9-1.8-1.3-2.7
			l-14.2,3.8c1-52.2,5.5-103.9,13.2-154.9l0,0c-5.7,3.8-11.3,7.6-16.9,11.6c0-0.2,0.1-0.4,0.1-0.7c-6.9,49.3-10.7,98.6-11.4,147.9
			l-18.8,5c0.6-45.9,3.7-91.5,9.3-136.6c-24.2,19-47.3,39.5-70.6,60.1c-2.2,31.3-3.3,62.6-3.2,93.8L0,1378.1l229.1,284.2
			l-32.9,211.1c23.9-8.2,48.3-13.4,66.7-4.1c-26.4,14.3-50.6,31.4-73.8,49.9l-16.2,103.9l278.4-74.6c30.1,52.5,64,103,101.6,151.2
			c73.9,94.9,159.8,178.2,256.2,248.9c0.7-0.3,1.4-0.7,2.1-1c0.4,1.4,0.8,2.5,1.3,3.5c37.3,27.1,76.2,52.4,116.5,75.7
			c146.2,84.4,304.8,139,471.3,162.2c45.8,6.4,91.7,10.3,137.6,11.7c0.7-1.1,1.6-0.9,2.3,0.1c20.6,0.6,41.2,0.7,61.8,0.3
			c5.8-9.1,20.2-11.6,30.7-0.9c95-4,189.6-18.5,283-43.5c169.5-45.4,325.1-122.7,462.4-229.7c132.6-103.3,242.7-229.9,327.1-376.1
			c84.4-146.2,139-304.8,162.2-471.3c8.4-60.5,12.5-121.1,12.4-181.7l278.4-74.6l-229.1-284.2L2985.2,578.2z M333.2,957.1
			C335.1,939.8,343.6,966,333.2,957.1L333.2,957.1z M550.9,510.1c-0.6-1.2-1.1-2.3-1.7-3.5c1.7-2.2,3.4-4.4,5.2-6.6
			c1.1,2.3,2.2,4.5,3.3,6.8C555.4,507.9,553.1,509,550.9,510.1z M1081.5,137.3c10.9-9.8,14.4,1.8,21.9,1.9
			C1103.1,150.1,1082.3,152.2,1081.5,137.3z M1113.4,142.7c-2.8-5.6-5.5-11.3-8.3-17c5.9-3.4,9.2,0.7,15.2-3.2
			C1124.2,131.4,1121.8,138.1,1113.4,142.7z M1180.6,74.9c6.8-6.5,20.1-18.1,30.5-14.9c9.6,21.4,10.5,34,24.9,50.9
			C1214.1,91.7,1195.5,103.6,1180.6,74.9z M1833.8,81.2c-8.8-12.4-4.7-20.4-1.4-28.7c11.8,1.1,24.6-0.6,33.6,8.8
			C1857.7,73,1849.3,86.2,1833.8,81.2z M2178.5,186.2c-7.8,3.8-15.8,7.7-23.7,11.6c-7.7-11.4-27.2-19.7-25-34.1
			c8.4,2.9,15.6,9.4,27,3.7c3.7-2.5-0.2-7.6-1.6-11.8c6.6,2.6,17-5.7,23.6-3.1C2172.6,161.6,2176.7,174.3,2178.5,186.2z
			 M274.5,1876.2C273.9,1862.5,289.4,1885.3,274.5,1876.2L274.5,1876.2z M289,1330.7c0-0.1,0-0.3,0-0.4c-0.4-3.7-0.6-5.4-0.7-5.8
			c0.1,0.5,0.4,3.3,0.7,5.8C288.9,1330.4,289,1330.5,289,1330.7L289,1330.7c0.1,0.7,0.2,1.4,0.2,2
			C289.1,1332.3,289.1,1331.6,289,1330.7z M289.3,1334.2c0-0.3-0.1-0.8-0.1-1.3C289.3,1333.5,289.3,1333.9,289.3,1334.2
			c0,0.1,0,0.2,0,0.2C289.4,1334.4,289.4,1334.3,289.3,1334.2z M259.6,1741.8c-17.4-16.5-1.1-19.2,10.3-21.8
			C278.3,1731.4,271.8,1737.6,259.6,1741.8z M384.2,1851.6c-0.3,0-0.5,0-0.7,0c-0.3,0-0.3,0,0,0
			C383.7,1851.6,383.9,1851.6,384.2,1851.6c0.3,0,0.7,0,1.2,0.1C384.9,1851.7,384.5,1851.6,384.2,1851.6z M396.7,1852.3
			c-1.4-0.1-3.4-0.2-5.5-0.3c-2.4-0.1-4.1-0.2-5.4-0.3c1.5,0.1,3.5,0.2,5.4,0.3c0.5,0,0.9,0,1.4,0.1
			C394.5,1852.2,395.8,1852.2,396.7,1852.3c0.8,0,1.3,0.1,1.5,0.1C398,1852.4,397.5,1852.3,396.7,1852.3z M394.6,1718
			c-13.5-5.5-7.2-21.3-6.5-30.5C400.2,1687.1,405.2,1710.4,394.6,1718z M2730,1220.9c2.8,11.2-8.8,0.3-13.6,6.6
			C2712.9,1218.8,2727.5,1220.9,2730,1220.9z M2653.1,1140.7C2656.4,1141.8,2651,1140,2653.1,1140.7L2653.1,1140.7z M2582.5,1013.9
			c3.4-1.6,6.8-3.3,10.1-5c5.3,8.4,5.9,15.2-3.5,18.5C2580.2,1023.5,2587.3,1023,2582.5,1013.9z M2609.2,1153.7
			c-0.9-4.7,7.6-7.1,10.1-5C2626,1154.6,2610.8,1162.7,2609.2,1153.7z M2480.3,718.9C2483.6,720,2478.2,718.2,2480.3,718.9
			L2480.3,718.9z M2476.9,729C2440.1,756.9,2427.1,736.2,2476.9,729L2476.9,729z M2409.2,762c4.7,15.1-21.5,23.8-33.9,25
			C2378,775.7,2394.3,769.1,2409.2,762z M2585,1032.2c20,74.6-9.2,162-106.8,188.2l-107.1,28.7L2291.2,951l107.1-28.7
			C2495.9,896.1,2565,957.6,2585,1032.2z M2618.8,1207.9c-27.8,21.3-45-18.5-13.3-27.2C2611.6,1187.4,2622.3,1197.9,2618.8,1207.9z
			 M2509.4,1302c-4.5,15.2-30,35.7-44.1,38.4C2449.2,1312.3,2491.9,1296.5,2509.4,1302z M2322.7,816.9c3.9,8.8-8,12.2-17,16.7
			C2296.6,822.9,2316.8,822.3,2322.7,816.9z M2282,853.6c3.1,7.7-4.9,11.5-13.6,15C2259.3,858.9,2276.4,858.2,2282,853.6z
			 M2353.3,1428.7C2356.6,1429.9,2351.2,1428,2353.3,1428.7L2353.3,1428.7z M1582.8,477.2c6.6-5.5,8,4.1,13.5,1.8
			C1599.1,488.1,1583.3,485.6,1582.8,477.2z M1442.1,481.4c5.3,8.5,0.7,13.5-8.6,16.8C1429,488.9,1430.8,477.3,1442.1,481.4z
			 M1114.9,600.6c0.9,8.1-3.4,18.8-13.6,15.1C1098.2,607.9,1106.3,604.2,1114.9,600.6z M1375.9,542.7
			c221.5-59.4,446.7-17.3,626.1,97.5l0,0c-0.8-1.6-1.6-3.2-2.4-4.9c2.3-1.1,4.5-2.2,6.8-3.3c1.1,2.3,2.2,4.5,3.3,6.8
			c-1.9,0.9-3.7,1.8-5.6,2.7l0,0c64.9,41.8,123.8,93.2,174.3,152.8l-19.9,5.3c-44.4-51.3-95.1-96.2-151.5-134.2
			c1.2,6.5,1.3,12.6,0.2,18.3c49.5,34.3,95,74.6,135.3,120.1l-354.7,95c0.1,14.8-24,17.1-48.8,13.1l-896.3,240.2
			c17.7-87.4,50.9-170.5,97.2-245.7c-1.5,2.4-2.9,4.8-4.4,7.1c-5.3,0.6-11-1.9-12.4-8.5c-2.5,4.1-5,8.2-7.4,12.4
			c-43.1,74.7-73,154.9-89.1,238.9l-19.9,5.3C859.2,872.3,1073.3,623.8,1375.9,542.7z M2005.1,1969c11.2,1.3,10.8,22.3-5.2,23.6
			C1995.5,1982.6,2011.4,1979.6,2005.1,1969z M1782.1,2058.5c-113.9,30.5-228.9,34.2-338,15c-2.4,9.5-13.2,12.6-22.4,13.6
			c0.3-6.5,6.3-11,12.4-15.4c0.1,0,0.1,0,0.2,0c-177-33.5-338.2-127.4-454.7-264.9l19.9-5.3c55.9,64.7,121.9,119.2,196.6,162.3
			c86.1,49.7,179.5,81.9,277.6,95.5c101.5,14.1,203.7,7.7,303.5-19c99.9-26.8,191.5-72.3,272.4-135.3
			c78.1-60.9,142.9-135.4,192.7-221.5c43.1-74.7,73-154.9,89.1-238.9l19.9-5.3C2298.8,1728.9,2084.8,1977.4,1782.1,2058.5z
			 M1568.1,2112.3c-6.4,4.9-10.1,2-15.2,3.2c-8.3-9.4,5.3-11.3,3.5-18.5C1563.6,2092.8,1563.9,2108.2,1568.1,2112.3z M1474.5,2118.7
			c5.1-3.6,7.4,0.4,11.8-1.6C1490.9,2123.1,1473.4,2129.7,1474.5,2118.7z M1161.9,1367c-10.1-18.1,19-28.9,25.3-8.2
			C1178.3,1363.2,1168.6,1369.6,1161.9,1367z M1253.8,1683.9C1251.7,1683.1,1257.1,1685,1253.8,1683.9L1253.8,1683.9z
			 M1376.6,1700.4c-5.8-3.9-10.4-9-13.3-15.4c16,4,34.6,0.2,50.1,5.5l333.2-89.3c-1.5-3.8-2.2-8.4-2.4-12.5
			c4.8,1.5,8.9,4.9,12.4,9.8l558.7-149.7c-55,270.6-257.6,501.1-541.9,577.3c-284.3,76.2-575-22.1-757.9-229L1376.6,1700.4z
			 M1162,1144c-17.6,1.1-12.6-27.8,0.3-33.8C1167.9,1123.5,1154.3,1130.1,1162,1144z M1457,1387.9c-11.2-21.2-42.9-16.8-73.6-11.8
			c-47.7,7.8-105.1,12.2-126.5-48.9l0.1,0.4c-7.1-19.6-7.3-41,1-61.1c13.1-31.4,45.2-54.6,79.8-63.9c46.1-12.3,100.2-1.3,122.5,51.3
			l-42.2,13.1c-13.2-25.3-45.3-29-71.2-21.6c-19.9,5.8-40.3,18.6-48.1,37.1c-3.9,9.3-3.4,19.7,0.2,29.7
			c10.4,30.1,45.1,24.9,77.9,19.4c42.3-5.9,95.9-8.8,120.2,35.9c3,6.1,5.8,13.1,7.4,19c15.4,57.6-32.8,106.2-86.6,120.6
			c-46.1,12.3-109.3,0-129.1-51.8l-2.6-8l43.3-12.5l2.1,6.3l-0.5-1.7c10.4,26.9,48,32.4,75.7,25c32-8.6,62.2-35.9,53.9-66.6
			C1460.3,1394.8,1458.9,1391.5,1457,1387.9z M1397.8,1171.9C1395.7,1171.1,1401.1,1173,1397.8,1171.9L1397.8,1171.9z M1264.8,1363
			c-11,4.6-16.9-5.6-21.8-18.8C1255.2,1336.3,1265.8,1357.5,1264.8,1363z M1691.2,1480.1c5.9,2.1,9.7,10.1,13.3,18.7
			c-22.7,6.7-33,27.6-47.3,14.7C1646.8,1494.9,1686.1,1493.4,1691.2,1480.1z M1633.2,1352.8c5.1-3.6,7.4,0.4,11.8-1.6
			C1649.6,1357.1,1632,1363.7,1633.2,1352.8z M1663.4,1214.7c10.4,30.1,45.1,24.9,77.9,19.4c42.3-5.9,95.9-8.8,120.2,35.9
			c3,6.1,5.8,13.1,7.4,19c15.4,57.6-32.8,106.2-86.6,120.6c-46.1,12.3-109.3,0-129.1-51.8l-2.6-8l43.3-12.5l2.1,6.3l-0.5-1.7
			c10.4,26.9,48,32.4,75.7,25c32-8.6,62.2-35.9,53.9-66.6c-0.8-3-2.1-6.3-4-9.9c-11.2-21.2-42.9-16.8-73.6-11.8
			c-47.7,7.8-105.1,12.2-126.5-48.9l0.1,0.4c-7.1-19.6-7.3-41,1-61.1c13.1-31.4,45.2-54.6,79.8-63.9c46.1-12.3,100.2-1.3,122.5,51.3
			l-42.2,13.1c-13.2-25.3-45.3-29-71.2-21.6c-19.9,5.8-40.3,18.6-48.1,37.1C1659.3,1194.3,1659.8,1204.7,1663.4,1214.7z
			 M1851.1,1404.8c-2.3,1.1-4.5,2.2-6.8,3.3c-1.1-2.3-2.2-4.5-3.3-6.8c2.3-1.1,4.5-2.2,6.8-3.3
			C1848.9,1400.3,1850,1402.5,1851.1,1404.8z M1781.7,1442.9c6.3-2.5,13.8-14,22.1-23.4C1818.1,1434.6,1791.4,1444.9,1781.7,1442.9z
			 M1597.5,1065.9c-8,9.9-14.5,8.9-25.4,8.2C1567.4,1063.7,1594.7,1050,1597.5,1065.9z M1867.2,965c8.5-4.6,8.8-12,11.9-18.5
			c7.4,0.2,14.8,0.6,18.5,12C1893,970.3,1875.6,982.3,1867.2,965z M1922.6,1113.3c-7.8,6.3-12.8,4.6-15.1-5.2
			c3.4-1.7,6.8-3.3,10.2-5C1919.2,1106.5,1920.9,1109.9,1922.6,1113.3z M2039.4,1368.9c6.7,9.9,4.4,16.6-6.9,20.2
			C2025.7,1379.3,2028,1372.5,2039.4,1368.9z M2016,1021.4c3.1-1,5.7-0.5,7.9,1.2l119.3-32l11.5,43.1l-138.2,37l22.5,84l135.2-36.2
			l11.7,43.5l-135.2,36.2l22.6,84.4l138.6-37.1l11.5,43.1l-182.1,48.8l-4-14.8c-4.8-9.2-10.8-18.9-8.4-25.7c0.5,0,1.1,0.1,1.6,0.1
			l-69.1-257.7l56-15C2017,1023.2,2016.5,1022.2,2016,1021.4z M2127.8,949.9C2131.1,951.1,2125.7,949.2,2127.8,949.9L2127.8,949.9z
			 M2158.5,1226.6c-3.9-8.9,8.4-12.2,6.5-20.4l3.4-0.9C2174.2,1211,2171.7,1225.5,2158.5,1226.6z M2213.6,1400.2
			c-22.9,12-35.5-6-48.7-22.5c4.5-2.2,9.1-4.4,13.6-6.6C2189.9,1381.5,2203.1,1387,2213.6,1400.2z M917.2,1612.7
			c-4.2,1.4-5.9-4.8-8.3-8.6C919,1596.3,917.7,1608.5,917.2,1612.7z M796.7,1185C800,1186.2,794.6,1184.3,796.7,1185L796.7,1185z
			 M924.5,1557.2c-2.7-2.6-4.8-7.3-6.8-12.1c2.9-1.4,5.8-2.8,8.7-4.3l18.4-158.7c-0.7-0.1-1.4-0.3-2.2-0.6c-1.7-4.3,0-7.4,3.4-9.9
			l7.8-67l31.6-8.5l200.9,270.3l-46.1,12.3l-59.4-78.3l-107.1,28.7c-4.2,30.4-9.5,70.2-12.3,97.5l-46.5,12.5L924.5,1557.2z
			 M907.1,1617.7C910.4,1618.8,904.9,1616.9,907.1,1617.7L907.1,1617.7z M633.4,1365.8c-6.3,2.1-10.5-2.1-13.4-10.3
			C628.5,1347.1,629.7,1360.1,633.4,1365.8z M533.5,1421.4l21.8-5.8c-2.2-4.1-2.2-7.3-1.4-15.2c5.6-2.6,12.3,4.3,14.6,11.7
			l74.2-19.9c64.4-17.3,110.2,24,123.6,73.9s-5.8,108.1-70.2,125.3l-65.7,17.6l26.6,99.4l-43.5,11.7L533.5,1421.4z M789.4,1788.7
			c-2.3,1.1-4.5,2.2-6.8,3.3c-1.1-2.3-2.2-4.5-3.3-6.8c2.2-1.1,4.5-2.2,6.8-3.3C787.2,1784.2,788.3,1786.5,789.4,1788.7z
			 M774,1817.3C796,1812.1,769.6,1839.3,774,1817.3L774,1817.3z M770.4,1835.8C766.2,1825.3,786.1,1832.2,770.4,1835.8L770.4,1835.8
			z M539.8,1895.2c5.6,6.6-4.1,8-1.7,13.5c-4.3,1.4-5.9-4.8-8.4-8.5C533.1,1898.5,536.5,1896.8,539.8,1895.2z M1690.3,2543.3
			C1693.6,2544.5,1688.2,2542.6,1690.3,2543.3L1690.3,2543.3z M2834.8,1504.8c-13.7-9,10.2-25.6-4.7-44
			C2852.1,1460.3,2857.9,1496.7,2834.8,1504.8z M1898.9,2494.6c-80.7,21.6-161.8,34.7-242.1,39.8c1.3,1.7,2.9,2.6,5,1.9
			c1.2,5.2-7.1,7-11.9,10c-1.8-3.7-3.6-7.5-5.5-11.2c-459.4,24.4-895.9-211.6-1128.7-604l18.8-5c25.3,42.3,53.3,83.1,83.9,122.4
			c15.4,19.7,31.3,38.9,47.8,57.6c0.2-3.7,2.5-8.3,8.3-13.4c-46.2-52.6-88.1-109.6-124.9-170.5l361.9-97
			c67,85.3,148.8,156.1,243.2,210.6c95.5,55.1,199,90.7,307.7,105.9c112.6,15.7,225.7,8.6,336.4-21.1
			c110.7-29.7,212.2-80.1,301.9-150c86.6-67.5,158.4-150.1,213.5-245.5c54.5-94.4,89.9-196.6,105.3-304l361.9-97
			c-4.8,240.1-82,470.2-215.4,662.6c2.4,0,4.7,0.2,5.5,0.2c2,8.3-3.7,4.5-8.8,4.5c0,0,0-0.1,0.1-0.1
			c-156.5,223.3-389.1,394.9-672.4,470.8c-76.4,20.5-153,33-229.1,38.3c4,5.9,8.9,9.2,13.4,13.9c73.6-5.9,146.9-18.5,219.5-38
			c158.7-42.5,304.3-114.9,432.9-215c124.1-96.7,227.1-215.2,306.2-352.1c79-136.9,130.1-285.3,151.8-441.2
			c6.9-49.3,10.7-98.6,11.4-147.9l18.8-5C2808.6,1855,2445.6,2348.1,1898.9,2494.6z M2742.9,878.1c7.1-6,13.1-12.4,25.4-16.6
			C2780.3,880.4,2754.6,885.8,2742.9,878.1z M2914.8,1205c-4.3-7.1-2.5-12.2,5.1-15.1C2917.9,1194.7,2925,1202.9,2914.8,1205z"/>
		<path class="st2" d="M2372.9,1082.6c2.3,0.8,0.4,0.1-0.3-0.1l30,111.9l64-17.1c69.1-18.5,89.9-80.8,75.7-133.7
			c-14.2-52.9-63.4-96.8-132.5-78.3l-64,17.1l26.8,100C2372.7,1082.5,2372.8,1082.6,2372.9,1082.6z M2425.3,1061.2
			c1.1,2.3,2.2,4.5,3.3,6.8c-2.2,1.1-4.5,2.2-6.8,3.3c-1.1-2.3-2.2-4.5-3.3-6.8C2420.8,1063.4,2423.1,1062.3,2425.3,1061.2z
			 M2400.1,1060.9c4.3,10-11.1,13.1-20.4,18.4C2379.6,1070.8,2389.1,1065.6,2400.1,1060.9z"/>
		<path class="st2" d="M281.6,1209.7L281.6,1209.7c0.2-3,0.4-6.1,0.7-9.1C282,1203.6,281.8,1206.6,281.6,1209.7z"/>
	</g>
</g>
</svg>
